7
8
7
7
8
7
4
8
7
9
9
7
9
5
8
2
2
7
8
1
4
7
3
10
10
2
4
10
10
6
8
4
3
5
6
2
4
5
1
5
7
2
6
4
9
1
1
1
10
10
10
5
6
6
10
1
1
3
9
10
1
2
9
3
7
5
3
0
7
7
7
6
5
0
1
1
3
0
7
6
7
7
6
4
7
3
5
1
2
4
8
5
2
5
8
1
2
7
8
7
5
0
7
7
9
0
5
10
5
7
1
0
2
3
10
1
6
7
4
9
1
7
4
5
1
4
7
3
6
4
7
0
5
7
4
3
9
5
1
3
7
2
7
5
5
4
0
1
9
4
0
8
1
7
8
4
1
10
8
1
10
9
4
7
7
9
0
6
4
4
8
1
10
4
9
2
5
2
1
8
4
7
1
5
5
10
7
9
7
5
2
10
10
1
2
7
3
10
7
9
5
5
4
10
7
7
9
8
5
9
1
9
0
9
1
7
5
7
10
10
7
3
8
4
5
8
1
0
6
2
1
6
0
2
3
7
7
7
5
7
0
1
3
10
1
2
9
9
0
3
5
5
7
7
7
0
2
9
8
2
4
3
9
10
8
4
8
0
4
4
5
5
4
10
7
6
3
9
9
2
2
1
2
4
1
7
5
7
2
0
1
5
7
10
7
3
5
9
5
6
4
7
9
9
0
3
7
7
7
5
8
6
1
10
7
2
1
4
9
7
8
2
7
7
1
2
2
3
8
3
9
6
5
9
0
9
7
9
1
8
7
4
3
7
4
9
3
10
1
7
10
7
9
1
8
2
4
6
6
8
5
6
6
2
5
7
9
10
6
10
0
7
5
4
7
8
7
6
6
8
7
2
4
4
9
1
2
2
9
7
8
5
9
8
4
7
0
10
9
9
7
7
7
8
10
4
9
3
8
4
1
9
7
2
0
7
7
4
0
2
0
0
9
4
2
3
0
5
7
9
1
4
0
7
6
4
10
5
3
3
8
4
7
0
7
7
4
4
6
4
3
8
10
5
2
6
5
10
2
7
4
8
5
2
7
1
4
10
7
6
1
2
3
7
7
3
7
5
0
1
10
2
8
2
1
1
3
7
10
4
5
5
7
5
3
5
0
1
8
9
0
9
6
1
5
4
10
7
6
6
5
5
7
1
9
3
8
7
7
7
8
4
3
9
0
7
2
3
6
6
1
3
0
7
9
3
8
8
4
6
0
0
1
10
0
9
9
8
0
8
3
0
4
6
1
7
7
2
6
2
5
7
1
4
8
0
6
2
7
3
7
5
10
5
7
7
10
2
7
0
5
0
1
0
6
3
2
1
4
3
5
0
2
7
3
4
10
7
8
7
5
10
10
7
10
10
9
6
4
7
8
10
2
9
7
1
6
7
3
1
8
1
1
8
9
2
7
3
3
10
3
7
6
7
8
0
0
8
6
5
7
7
2
4
5
7
10
8
7
10
6
10
4
3
6
10
8
7
3
6
8
7
7
10
9
2
0
9
0
10
5
3
7
5
3
7
10
7
6
3
3
9
0
4
9
0
4
5
3
10
9
7
6
2
7
1
2
4
8
7
8
8
2
10
8
9
10
4
9
6
10
7
1
9
5
3
9
7
9
7
6
10
6
7
0
6
2
3
10
2
1
9
0
6
4
2
8
6
1
2
5
9
9
0
9
0
9
5
8
1
0
2
1
7
7
10
1
8
10
1
5
9
9
2
1
4
1
10
6
5
9
5
1
6
7
5
2
0
9
6
7
6
3
4
9
3
8
8
7
2
7
5
9
10
10
0
3
0
5
1
9
7
10
7
10
0
2
1
4
9
8
6
9
4
7
7
7
10
1
6
0
10
9
9
7
7
10
3
7
1
8
7
3
2
7
2
4
5
10
4
7
1
5
7
9
8
0
0
0
9
3
0
8
0
7
10
8
1
3
4
6
1
1
0
3
6
8
3
7
8
4
1
8
1
0
8
9
6
4
2
4
7
2
4
7
7
1
4
1
3
4
10
6
0
7
3
10
5
9
3
10
7
10
8
4
2
3
0
8
8
7
6
10
7
0
9
9
3
1
10
4
5
3
2
2
4
3
1
10
6
3
3
1
1
6
5
10
7
2
7
7
7
9
10
1
1
3
7
4
0
2
0
7
2
0
8
10
7
5
8
3
7
0
7
6
6
9
7
0
6
8
10
8
3
3
10
1
0
7
8
